800,15,25,2.88993e+09,2.88909e+09,1.08059e-06,7.96879e-07
1600,30,50,3.00378e+09,3.0036e+09,1.5513e-06,1.11196e-06
2400,45,75,2.62199e+09,2.62195e+09,1.86282e-06,1.53765e-06
3200,60,100,2.83881e+09,2.83879e+09,2.20059e-06,1.925e-06
4000,75,125,2.87228e+09,2.87227e+09,2.62088e-06,2.42723e-06
4800,90,150,2.89364e+09,2.89363e+09,3.00622e-06,2.66064e-06
5600,105,175,2.82397e+09,2.82397e+09,3.26786e-06,3.27946e-06
6400,120,200,2.65486e+09,2.65486e+09,3.4995e-06,3.22057e-06
7200,135,225,2.75895e+09,2.75895e+09,3.60718e-06,3.5764e-06
8000,150,250,2.85407e+09,2.85407e+09,3.8556e-06,3.9245e-06
