200,60,100,1.5114e+08,1.50997e+08,1.98667e-15,1.5364e-15
400,120,200,1.55934e+08,1.55909e+08,3.00681e-15,2.46089e-15
600,180,300,1.58585e+08,1.58575e+08,3.8088e-15,2.94719e-15
800,240,400,1.61651e+08,1.61647e+08,4.65912e-15,3.60191e-15
1000,300,500,1.47372e+08,1.4737e+08,5.49886e-15,4.2439e-15
1200,360,600,1.61735e+08,1.61734e+08,6.05893e-15,4.85312e-15
1400,420,700,1.61435e+08,1.61434e+08,6.78528e-15,5.506e-15
1600,480,800,1.55993e+08,1.55992e+08,7.39205e-15,5.97959e-15
1800,540,900,1.51729e+08,1.51729e+08,7.79413e-15,6.46617e-15
2000,600,1000,1.50622e+08,1.50621e+08,8.61954e-15,7.11759e-15
