200,60,100,2.05309e+08,2.0499e+08,1.78188e-15,1.43586e-15
400,120,200,2.14516e+08,2.14471e+08,2.32852e-15,2.09127e-15
600,180,300,3.51181e+08,3.51137e+08,2.82108e-15,2.45804e-15
800,240,400,6.43893e+08,6.4383e+08,3.30809e-15,2.86665e-15
1000,300,500,9.23263e+08,9.23187e+08,3.75646e-15,3.17358e-15
1200,360,600,9.73291e+08,9.73247e+08,4.12232e-15,3.6356e-15
1400,420,700,9.20815e+08,9.20789e+08,4.65422e-15,4.10481e-15
1600,480,800,1.15077e+09,1.15074e+09,5.08799e-15,4.42541e-15
1800,540,900,1.19165e+09,1.19163e+09,5.41026e-15,4.62291e-15
2000,600,1000,1.14955e+09,1.14953e+09,5.89733e-15,5.05164e-15
