200,15,25,2.07006e+07,2.06971e+07,1.16079e-15,8.83645e-16
400,30,50,2.74799e+08,2.74725e+08,1.3895e-15,1.33178e-15
600,45,75,7.97869e+08,7.97669e+08,1.68614e-15,1.43556e-15
800,60,100,1.81253e+09,1.81206e+09,1.87684e-15,1.93066e-15
1000,75,125,3.07252e+09,3.07182e+09,2.02097e-15,2.06188e-15
1200,90,150,3.98124e+09,3.98052e+09,2.27921e-15,2.38524e-15
1400,105,175,4.36928e+09,4.36869e+09,2.41362e-15,2.65401e-15
1600,120,200,4.39849e+09,4.39812e+09,2.58449e-15,3.02768e-15
1800,135,225,4.66626e+09,4.66597e+09,2.92518e-15,3.30541e-15
2000,150,250,6.87729e+09,6.87678e+09,2.8648e-15,3.62401e-15
