400,15,25,1.39508e+09,1.39364e+09,1.49115e-15,1.09206e-15
800,30,50,1.44833e+09,1.44803e+09,2.1488e-15,1.70502e-15
1200,45,75,1.44971e+09,1.44961e+09,2.63433e-15,2.53399e-15
1600,60,100,1.32526e+09,1.32522e+09,3.13748e-15,2.54301e-15
2000,75,125,1.31689e+09,1.31687e+09,3.60553e-15,3.06836e-15
2400,90,150,1.30884e+09,1.30883e+09,4.10459e-15,4.10372e-15
2800,105,175,1.31021e+09,1.31021e+09,4.53883e-15,4.18682e-15
3200,120,200,1.30953e+09,1.30952e+09,4.83156e-15,4.47626e-15
3600,135,225,1.31737e+09,1.31737e+09,5.18062e-15,5.22904e-15
4000,150,250,1.0779e+09,1.0779e+09,5.63524e-15,5.86899e-15
