800,15,25,4.28437e+10,5.45987e+09,1.73399e-15,1.59538e-15,1.28005e-15
1600,30,50,5.82783e+10,1.23563e+10,2.34001e-15,2.16003e-15,2.84061e-15
2400,45,75,7.32805e+10,4.08329e+10,2.79719e-15,2.58217e-15,2.49642e-15
3200,60,100,5.151e+10,3.4445e+10,3.27916e-15,2.89443e-15,3.26111e-15
4000,75,125,6.52541e+10,4.80203e+10,3.67078e-15,3.29764e-15,4.32892e-15
4800,90,150,8.04942e+10,6.15921e+10,4.05134e-15,3.51901e-15,4.95998e-15
5600,105,175,8.5424e+10,6.16943e+10,4.24724e-15,3.86354e-15,4.69709e-15
6400,120,200,7.89817e+10,6.39362e+10,4.68836e-15,4.14122e-15,5.92765e-15
7200,135,225,8.29109e+10,6.79714e+10,4.90595e-15,4.36585e-15,6.04541e-15
8000,150,250,8.07893e+10,6.86804e+10,5.14687e-15,4.67723e-15,5.67708e-15
